date,areaName,cumCasesBySpecimenDate,newCasesBySpecimenDate,R Rate
29/05/2020,England,216625,1371,0.8
30/05/2020,England,217623,998,0.8
31/05/2020,England,218609,986,0.8
01/06/2020,England,219924,1315,0.8
02/06/2020,England,221275,1351,0.8
03/06/2020,England,222515,1240,0.8
04/06/2020,England,223660,1145,0.8
05/06/2020,England,224680,1020,0.85
06/06/2020,England,225402,722,0.85
07/06/2020,England,226065,663,0.85
08/06/2020,England,227051,986,0.85
09/06/2020,England,228110,1059,0.85
10/06/2020,England,229191,1081,0.85
11/06/2020,England,230107,916,0.85
12/06/2020,England,231046,939,0.9
13/06/2020,England,231830,784,0.9
14/06/2020,England,232575,745,0.9
15/06/2020,England,233516,941,0.9
16/06/2020,England,234509,993,0.9
17/06/2020,England,235420,911,0.9
18/06/2020,England,236364,944,0.9
19/06/2020,England,237172,808,0.8
20/06/2020,England,237798,626,0.8
21/06/2020,England,238349,551,0.8
22/06/2020,England,239161,812,0.8
23/06/2020,England,239888,727,0.8
24/06/2020,England,240617,729,0.8
25/06/2020,England,241254,637,0.8
26/06/2020,England,241896,642,0.8
27/06/2020,England,242399,503,0.8
28/06/2020,England,242810,411,0.8
29/06/2020,England,243475,665,0.8
30/06/2020,England,244047,572,0.8
01/07/2020,England,244653,606,0.8
02/07/2020,England,245212,559,0.8
03/07/2020,England,245747,535,0.85
04/07/2020,England,246130,383,0.85
05/07/2020,England,246670,540,0.85
06/07/2020,England,247326,656,0.85
07/07/2020,England,247885,559,0.85
08/07/2020,England,248557,672,0.85
09/07/2020,England,249238,681,0.85
10/07/2020,England,249755,517,0.9
11/07/2020,England,250174,419,0.9
12/07/2020,England,250525,351,0.9
13/07/2020,England,251215,690,0.9
14/07/2020,England,251865,650,0.9
15/07/2020,England,252590,725,0.9
16/07/2020,England,253229,639,0.9
17/07/2020,England,253776,547,0.9
18/07/2020,England,254243,467,0.9
19/07/2020,England,254656,413,0.9
20/07/2020,England,255410,754,0.9
21/07/2020,England,256100,690,0.9
22/07/2020,England,256847,747,0.9
23/07/2020,England,257580,733,0.9
24/07/2020,England,258293,713,0.9
25/07/2020,England,258785,492,0.9
26/07/2020,England,259300,515,0.9
27/07/2020,England,260109,809,0.9
28/07/2020,England,260891,782,0.9
29/07/2020,England,261865,974,0.9
30/07/2020,England,262720,855,0.9
31/07/2020,England,263346,626,0.9
01/08/2020,England,263839,493,0.9
02/08/2020,England,264351,512,0.9
03/08/2020,England,265290,939,0.9
04/08/2020,England,266209,919,0.9
05/08/2020,England,267151,942,0.9
06/08/2020,England,268131,980,0.9
07/08/2020,England,268997,866,0.9
08/08/2020,England,269633,636,0.9
09/08/2020,England,270190,557,0.9
10/08/2020,England,271541,1351,0.9
11/08/2020,England,272753,1212,0.9
12/08/2020,England,273848,1095,0.9
13/08/2020,England,274867,1019,0.9
14/08/2020,England,275903,1036,0.9
15/08/2020,England,276546,643,0.9
16/08/2020,England,277076,530,0.9
17/08/2020,England,278213,1137,0.9
18/08/2020,England,279138,925,0.9
19/08/2020,England,280209,1071,0.9
20/08/2020,England,281429,1220,0.9
21/08/2020,England,282437,1008,0.95
22/08/2020,England,283152,715,0.95
23/08/2020,England,283845,693,0.95
24/08/2020,England,284975,1130,0.95
25/08/2020,England,286035,1060,0.95
26/08/2020,England,287172,1137,0.95
27/08/2020,England,288498,1326,0.95
28/08/2020,England,289881,1383,1
29/08/2020,England,290922,1041,1
30/08/2020,England,291899,977,1
31/08/2020,England,293158,1259,1
01/09/2020,England,295085,1927,1
02/09/2020,England,297703,2618,1
03/09/2020,England,300369,2666,1
04/09/2020,England,302960,2591,0.95
05/09/2020,England,305150,2190,0.95
06/09/2020,England,307211,2061,0.95
07/09/2020,England,310675,3464,0.95
08/09/2020,England,313679,3004,0.95
09/09/2020,England,316531,2852,0.95
10/09/2020,England,319632,3101,0.95
11/09/2020,England,322487,2855,1.1
12/09/2020,England,324700,2213,1.1
13/09/2020,England,326411,1711,1.1
14/09/2020,England,329313,2902,1.1
15/09/2020,England,332358,3045,1.1
16/09/2020,England,336105,3747,1.1
17/09/2020,England,340047,3942,1.1
18/09/2020,England,344321,4274,1.3
19/09/2020,England,348500,4179,1.3
20/09/2020,England,353127,4627,1.3
21/09/2020,England,357827,4700,1.3
22/09/2020,England,363193,5366,1.3
23/09/2020,England,369086,5893,1.3
24/09/2020,England,375379,6293,1.3
25/09/2020,England,381426,6047,1.35
26/09/2020,England,387083,5657,1.35
27/09/2020,England,393109,6026,1.35
28/09/2020,England,401688,8579,1.35
29/09/2020,England,410409,8721,1.35
30/09/2020,England,420932,10523,1.35
01/10/2020,England,432242,11310,1.35
02/10/2020,England,443819,11577,1.4
03/10/2020,England,453523,9704,1.4
04/10/2020,England,463357,9834,1.4
05/10/2020,England,477398,14041,1.4
06/10/2020,England,491697,14299,1.4
07/10/2020,England,506902,15205,1.4
08/10/2020,England,522171,15269,1.4
09/10/2020,England,535183,13012,1.35
10/10/2020,England,545336,10153,1.35
11/10/2020,England,554995,9659,1.35
12/10/2020,England,571194,16199,1.35
13/10/2020,England,586646,15452,1.35
14/10/2020,England,603096,16450,1.35
15/10/2020,England,618346,15250,1.35
16/10/2020,England,632904,14558,1.3
17/10/2020,England,645267,12363,1.3
18/10/2020,England,657125,11858,1.3
19/10/2020,England,679241,22116,1.3
20/10/2020,England,700581,21340,1.3
21/10/2020,England,722090,21509,1.3
22/10/2020,England,741711,19621,1.3
23/10/2020,England,759827,18116,1.3
24/10/2020,England,773352,13525,1.3
25/10/2020,England,786521,13169,1.3
26/10/2020,England,809290,22769,1.3
27/10/2020,England,829787,20497,1.3
28/10/2020,England,850028,20241,1.3
29/10/2020,England,870009,19981,1.3
30/10/2020,England,889657,19648,1.2
31/10/2020,England,904015,14358,1.2
01/11/2020,England,917390,13375,1.2
02/11/2020,England,945322,27932,1.2
03/11/2020,England,967645,22323,1.2
04/11/2020,England,988343,20698,1.2
05/11/2020,England,1009218,20875,1.2
06/11/2020,England,1030050,20832,1.2
07/11/2020,England,1046677,16627,1.2
08/11/2020,England,1064645,17968,1.2
09/11/2020,England,1092751,28106,1.2
10/11/2020,England,1117235,24484,1.2
11/11/2020,England,1141888,24653,1.2
12/11/2020,England,1163852,21964,1.2
13/11/2020,England,1185514,21662,1.15
14/11/2020,England,1201547,16033,1.15
15/11/2020,England,1215775,14228,1.15
16/11/2020,England,1239500,23725,1.15
17/11/2020,England,1259844,20344,1.15
18/11/2020,England,1278077,18233,1.15
19/11/2020,England,1293585,15508,1.15
20/11/2020,England,1308273,14688,1.05
21/11/2020,England,1318892,10619,1.05
22/11/2020,England,1328931,10039,1.05
23/11/2020,England,1345136,16205,1.05
24/11/2020,England,1359170,14034,1.05
25/11/2020,England,1373095,13925,1.05
26/11/2020,England,1385366,12271,1.05
27/11/2020,England,1397648,12282,0.95
28/11/2020,England,1406854,9206,0.95
29/11/2020,England,1415766,8912,0.95
30/11/2020,England,1430814,15048,0.95
01/12/2020,England,1444342,13528,0.95
02/12/2020,England,1457802,13460,0.95
03/12/2020,England,1470349,12547,0.95
04/12/2020,England,1483276,12927,0.9
05/12/2020,England,1493475,10199,0.9
06/12/2020,England,1504378,10903,0.9
07/12/2020,England,1521804,17426,0.9
08/12/2020,England,1538494,16690,0.9
09/12/2020,England,1556002,17508,0.9
10/12/2020,England,1574577,18575,0.9
11/12/2020,England,1594466,19889,0.9
12/12/2020,England,1610499,16033,0.9
13/12/2020,England,1628631,18132,0.9
14/12/2020,England,1658169,29538,0.9
15/12/2020,England,1687291,29122,0.9
16/12/2020,England,1717428,30137,0.9
17/12/2020,England,1747032,29604,0.9
18/12/2020,England,1778883,31851,1.2
19/12/2020,England,1800635,21752,1.2
20/12/2020,England,1829595,28960,1.2
21/12/2020,England,1872221,42626,1.2
22/12/2020,England,1913163,40942,1.2
23/12/2020,England,1950872,37709,1.2
24/12/2020,England,1979603,28731,1.2
25/12/2020,England,1992279,12676,1.25
26/12/2020,England,2028980,36701,1.25
27/12/2020,England,2071448,42468,1.25
28/12/2020,England,2111497,40049,1.25
29/12/2020,England,2184048,72551,1.25
30/12/2020,England,2246968,62920,1.25
31/12/2020,England,2293686,46718,1.25
01/01/2021,England,2321917,28231,1.25
02/01/2021,England,2376130,54213,1.25
03/01/2021,England,2425671,49541,1.25
04/01/2021,England,2494826,69155,1.25
05/01/2021,England,2552926,58100,1.25
06/01/2021,England,2604288,51362,1.25
07/01/2021,England,2651162,46874,1.25
08/01/2021,England,2693556,42394,1.25
09/01/2021,England,2729024,35468,1.25
10/01/2021,England,2761896,32872,1.25
11/01/2021,England,2814004,52108,1.25
12/01/2021,England,2858752,44748,1.25
13/01/2021,England,2899969,41217,1.25
14/01/2021,England,2938551,38582,1.25
15/01/2021,England,2975383,36832,1.2
16/01/2021,England,3003065,27682,1.2
17/01/2021,England,3029310,26245,1.2
18/01/2021,England,3070109,40799,1.2
19/01/2021,England,3106153,36044,1.2
20/01/2021,England,3137978,31825,1.2
21/01/2021,England,3166795,28817,1.2
22/01/2021,England,3193777,26982,0.9
23/01/2021,England,3213702,19925,0.9
24/01/2021,England,3229213,15511,0.9
25/01/2021,England,3256408,27195,0.9
26/01/2021,England,3280920,24512,0.9
27/01/2021,England,3304237,23317,0.9
28/01/2021,England,3326148,21911,0.9
29/01/2021,England,3345887,19739,0.85
30/01/2021,England,3360905,15018,0.85
31/01/2021,England,3374682,13777,0.85
01/02/2021,England,3394872,20190,0.85
02/02/2021,England,3412602,17730,0.85
03/02/2021,England,3430082,17480,0.85
04/02/2021,England,3446316,16234,0.85
05/02/2021,England,3460353,14037,0.8
06/02/2021,England,3470962,10609,0.8
07/02/2021,England,3481159,10197,0.8
08/02/2021,England,3495091,13932,0.8
09/02/2021,England,3507390,12299,0.8
10/02/2021,England,3519287,11897,0.8
11/02/2021,England,3530581,11294,0.8
12/02/2021,England,3541185,10604,0.8
13/02/2021,England,3548956,7771,0.8
14/02/2021,England,3556533,7577,0.8
15/02/2021,England,3569053,12520,0.8
16/02/2021,England,3579905,10852,0.8
17/02/2021,England,3589960,10055,0.8
18/02/2021,England,3599889,9929,0.8