date,areaName,cumCasesBySpecimenDate,newCasesBySpecimenDate,rRate
29/05/2020,London,32248,56,0.8
30/05/2020,London,32287,39,0.8
31/05/2020,London,32325,38,0.8
01/06/2020,London,32374,49,0.8
02/06/2020,London,32423,49,0.8
03/06/2020,London,32502,79,0.8
04/06/2020,London,32559,57,0.8
05/06/2020,London,32604,45,0.85
06/06/2020,London,32650,46,0.85
07/06/2020,London,32695,45,0.85
08/06/2020,London,32751,56,0.85
09/06/2020,London,32822,71,0.85
10/06/2020,London,32874,52,0.85
11/06/2020,London,32921,47,0.85
12/06/2020,London,32974,53,0.9
13/06/2020,London,33013,39,0.9
14/06/2020,London,33044,31,0.9
15/06/2020,London,33085,41,0.9
16/06/2020,London,33131,46,0.9
17/06/2020,London,33173,42,0.9
18/06/2020,London,33219,46,0.9
19/06/2020,London,33256,37,0.85
20/06/2020,London,33285,29,0.85
21/06/2020,London,33312,27,0.85
22/06/2020,London,33363,51,0.85
23/06/2020,London,33412,49,0.85
24/06/2020,London,33458,46,0.85
25/06/2020,London,33515,57,0.85
26/06/2020,London,33563,48,0.75
27/06/2020,London,33595,32,0.75
28/06/2020,London,33617,22,0.75
29/06/2020,London,33675,58,0.75
30/06/2020,London,33727,52,0.75
01/07/2020,London,33769,42,0.75
02/07/2020,London,33809,40,0.75
03/07/2020,London,33847,38,0.95
04/07/2020,London,33879,32,0.95
05/07/2020,London,33930,51,0.95
06/07/2020,London,33984,54,0.95
07/07/2020,London,34044,60,0.95
08/07/2020,London,34101,57,0.95
09/07/2020,London,34155,54,0.95
10/07/2020,London,34195,40,0.85
11/07/2020,London,34214,19,0.85
12/07/2020,London,34252,38,0.85
13/07/2020,London,34337,85,0.85
14/07/2020,London,34399,62,0.85
15/07/2020,London,34475,76,0.85
16/07/2020,London,34545,70,0.85
17/07/2020,London,34593,48,0.95
18/07/2020,London,34641,48,0.95
19/07/2020,London,34682,41,0.95
20/07/2020,London,34779,97,0.95
21/07/2020,London,34861,82,0.95
22/07/2020,London,34942,81,0.95
23/07/2020,London,35012,70,0.95
24/07/2020,London,35095,83,0.9
25/07/2020,London,35151,56,0.9
26/07/2020,London,35216,65,0.9
27/07/2020,London,35316,100,0.9
28/07/2020,London,35416,100,0.9
29/07/2020,London,35515,99,0.9
30/07/2020,London,35617,102,0.9
31/07/2020,London,35690,73,0.9
01/08/2020,London,35748,58,0.9
02/08/2020,London,35824,76,0.9
03/08/2020,London,35911,87,0.9
04/08/2020,London,36015,104,0.9
05/08/2020,London,36128,113,0.9
06/08/2020,London,36232,104,0.9
07/08/2020,London,36355,123,0.95
08/08/2020,London,36410,55,0.95
09/08/2020,London,36477,67,0.95
10/08/2020,London,36620,143,0.95
11/08/2020,London,36769,149,0.95
12/08/2020,London,36929,160,0.95
13/08/2020,London,37053,124,0.95
14/08/2020,London,37179,126,0.9
15/08/2020,London,37285,106,0.9
16/08/2020,London,37373,88,0.9
17/08/2020,London,37562,189,0.9
18/08/2020,London,37743,181,0.9
19/08/2020,London,37895,152,0.9
20/08/2020,London,38099,204,0.9
21/08/2020,London,38267,168,1
22/08/2020,London,38387,120,1
23/08/2020,London,38528,141,1
24/08/2020,London,38723,195,1
25/08/2020,London,38893,170,1
26/08/2020,London,39057,164,1
27/08/2020,London,39286,229,1
28/08/2020,London,39507,221,1
29/08/2020,London,39646,139,1
30/08/2020,London,39779,133,1
31/08/2020,London,39995,216,1
01/09/2020,London,40309,314,1
02/09/2020,London,40643,334,1
03/09/2020,London,40990,347,1
04/09/2020,London,41345,355,1
05/09/2020,London,41615,270,1
06/09/2020,London,41820,205,1
07/09/2020,London,42283,463,1
08/09/2020,London,42626,343,1
09/09/2020,London,42970,344,1
10/09/2020,London,43362,392,1
11/09/2020,London,43693,331,1.2
12/09/2020,London,43923,230,1.2
13/09/2020,London,44035,112,1.2
14/09/2020,London,44334,299,1.2
15/09/2020,London,44603,269,1.2
16/09/2020,London,44896,293,1.2
17/09/2020,London,45218,322,1.2
18/09/2020,London,45604,386,1.25
19/09/2020,London,45942,338,1.25
20/09/2020,London,46352,410,1.25
21/09/2020,London,46780,428,1.25
22/09/2020,London,47300,520,1.25
23/09/2020,London,47957,657,1.25
24/09/2020,London,48556,599,1.25
25/09/2020,London,49160,604,1.35
26/09/2020,London,49708,548,1.35
27/09/2020,London,50236,528,1.35
28/09/2020,London,50978,742,1.35
29/09/2020,London,51677,699,1.35
30/09/2020,London,52666,989,1.35
01/10/2020,London,53737,1071,1.35
02/10/2020,London,54773,1036,1.4
03/10/2020,London,55563,790,1.4
04/10/2020,London,56382,819,1.4
05/10/2020,London,57670,1288,1.4
06/10/2020,London,58836,1166,1.4
07/10/2020,London,60239,1403,1.4
08/10/2020,London,61715,1476,1.4
09/10/2020,London,63060,1345,1.3
10/10/2020,London,63932,872,1.3
11/10/2020,London,64673,741,1.3
12/10/2020,London,66245,1572,1.3
13/10/2020,London,67668,1423,1.3
14/10/2020,London,69291,1623,1.3
15/10/2020,London,71008,1717,1.3
16/10/2020,London,72661,1653,1.25
17/10/2020,London,73768,1107,1.25
18/10/2020,London,75063,1295,1.25
19/10/2020,London,77398,2335,1.25
20/10/2020,London,79711,2313,1.25
21/10/2020,London,82065,2354,1.25
22/10/2020,London,84238,2173,1.25
23/10/2020,London,86243,2005,1.2
24/10/2020,London,87675,1432,1.2
25/10/2020,London,88968,1293,1.2
26/10/2020,London,91492,2524,1.2
27/10/2020,London,93578,2086,1.2
28/10/2020,London,95543,1965,1.2
29/10/2020,London,97552,2009,1.2
30/10/2020,London,99424,1872,1.2
31/10/2020,London,100811,1387,1.2
01/11/2020,London,102014,1203,1.2
02/11/2020,London,104920,2906,1.2
03/11/2020,London,107050,2130,1.2
04/11/2020,London,109095,2045,1.2
05/11/2020,London,111184,2089,1.2
06/11/2020,London,113296,2112,1.2
07/11/2020,London,114943,1647,1.2
08/11/2020,London,116701,1758,1.2
09/11/2020,London,119779,3078,1.2
10/11/2020,London,122501,2722,1.2
11/11/2020,London,125409,2908,1.2
12/11/2020,London,128247,2838,1.2
13/11/2020,London,130939,2692,1.1
14/11/2020,London,132857,1918,1.1
15/11/2020,London,134654,1797,1.1
16/11/2020,London,137721,3067,1.1
17/11/2020,London,140277,2556,1.1
18/11/2020,London,142729,2452,1.1
19/11/2020,London,144907,2178,1.1
20/11/2020,London,147013,2106,1.1
21/11/2020,London,148489,1476,1.1
22/11/2020,London,149968,1479,1.1
23/11/2020,London,152352,2384,1.1
24/11/2020,London,154499,2147,1.1
25/11/2020,London,156736,2237,1.1
26/11/2020,London,158798,2062,1.1
27/11/2020,London,160991,2193,1.05
28/11/2020,London,162628,1637,1.05
29/11/2020,London,164279,1651,1.05
30/11/2020,London,166969,2690,1.05
01/12/2020,London,169421,2452,1.05
02/12/2020,London,172212,2791,1.05
03/12/2020,London,174662,2450,1.05
04/12/2020,London,177585,2923,1
05/12/2020,London,179859,2274,1
06/12/2020,London,182282,2423,1
07/12/2020,London,185987,3705,1
08/12/2020,London,189684,3697,1
09/12/2020,London,194098,4414,1
10/12/2020,London,199095,4997,1
11/12/2020,London,204566,5471,1
12/12/2020,London,209224,4658,1
13/12/2020,London,214718,5494,1
14/12/2020,London,223035,8317,1
15/12/2020,London,231857,8822,1
16/12/2020,London,241822,9965,1
17/12/2020,London,251953,10131,1
18/12/2020,London,262724,10771,1.2
19/12/2020,London,269872,7148,1.2
20/12/2020,London,278757,8885,1.2
21/12/2020,London,291990,13233,1.2
22/12/2020,London,305326,13336,1.2
23/12/2020,London,317677,12351,1.2
24/12/2020,London,327088,9411,1.2
25/12/2020,London,331412,4324,1.35
26/12/2020,London,343262,11850,1.35
27/12/2020,London,356411,13149,1.35
28/12/2020,London,367081,10670,1.35
29/12/2020,London,386954,19873,1.35
30/12/2020,London,404269,17315,1.35
31/12/2020,London,416657,12388,1.35
01/01/2021,London,423393,6736,1.3
02/01/2021,London,437016,13623,1.3
03/01/2021,London,450134,13118,1.3
04/01/2021,London,467359,17225,1.3
05/01/2021,London,481903,14544,1.3
06/01/2021,London,495441,13538,1.3
07/01/2021,London,507495,12054,1.3
08/01/2021,London,518017,10522,1.25
09/01/2021,London,526748,8731,1.25
10/01/2021,London,534214,7466,1.25
11/01/2021,London,545758,11544,1.25
12/01/2021,London,555585,9827,1.25
13/01/2021,London,564901,9316,1.25
14/01/2021,London,573823,8922,1.25
15/01/2021,London,582009,8186,1.05
16/01/2021,London,588179,6170,1.05
17/01/2021,London,593562,5383,1.05
18/01/2021,London,601871,8309,1.05
19/01/2021,London,608881,7010,1.05
20/01/2021,London,615130,6249,1.05
21/01/2021,London,620922,5792,1.05
22/01/2021,London,626489,5567,0.8
23/01/2021,London,630643,4154,0.8
24/01/2021,London,633764,3121,0.8
25/01/2021,London,638731,4967,0.8
26/01/2021,London,642884,4153,0.8
27/01/2021,London,647095,4211,0.8
28/01/2021,London,650954,3859,0.8
29/01/2021,London,654340,3386,0.75
30/01/2021,London,656968,2628,0.75
31/01/2021,London,659203,2235,0.75
01/02/2021,London,662505,3302,0.75
02/02/2021,London,665467,2962,0.75
03/02/2021,London,668171,2704,0.75
04/02/2021,London,670647,2476,0.75
05/02/2021,London,672766,2119,0.7
06/02/2021,London,674305,1539,0.7
07/02/2021,London,675652,1347,0.7
08/02/2021,London,677458,1806,0.7
09/02/2021,London,679120,1662,0.7
10/02/2021,London,680652,1532,0.7
11/02/2021,London,682107,1455,0.7
12/02/2021,London,683383,1276,0.7
13/02/2021,London,684259,876,0.7
14/02/2021,London,685149,890,0.7
15/02/2021,London,686532,1383,0.7
16/02/2021,London,687731,1199,0.7
17/02/2021,London,688818,1087,0.7
18/02/2021,London,689922,1104,0.7